{
	"id": "d23be81f-e293-40f5-8cff-e7161f476e8e",
	"name": "int",
	"values": [
		{
			"key": "host",
			"value": "https://int-arqaso.work.pe.nextgen.igrupobbva:8050",
			"type": "default",
			"enabled": true
		}
	],
	"_postman_variable_scope": "environment",
	"_postman_exported_at": "2024-05-09T05:21:44.827Z",
	"_postman_exported_using": "Postman/10.24.24"
}